full adder/full_adder.vcd
$date
  Sat Dec 28 16:31:50 2024
$end
$version
  GHDL v0
$end
$timescale
  1 fs
$end
$scope module standard $end
$upscope $end
$scope module std_logic_1164 $end
$upscope $end
$scope module full_adder_tb $end
$var reg 1 ! a $end
$var reg 1 " b $end
$var reg 1 # cin $end
$var reg 1 $ sum $end
$var reg 1 % cout $end
$scope module uut $end
$var reg 1 & a $end
$var reg 1 ' b $end
$var reg 1 ( cin $end
$var reg 1 ) sum $end
$var reg 1 * cout $end
$var reg 1 + sum1 $end
$var reg 1 , carry1 $end
$var reg 1 - carry2 $end
$scope module ha1 $end
$var reg 1 . a $end
$var reg 1 / b $end
$var reg 1 0 sum $end
$var reg 1 1 carry $end
$upscope $end
$scope module ha2 $end
$var reg 1 2 a $end
$var reg 1 3 b $end
$var reg 1 4 sum $end
$var reg 1 5 carry $end
$upscope $end
$upscope $end
$upscope $end
$enddefinitions $end
#0
0!
0"
0#
0$
0%
0&
0'
0(
0)
0*
0+
0,
0-
0.
0/
00
01
02
03
04
05
#10000000
1"
1$
1'
1)
1+
1/
10
12
14
#20000000
1!
0"
1&
0'
1.
0/
#30000000
1"
0$
1%
1'
0)
1*
0+
1,
1/
00
11
02
04
#40000000
0!
0"
1#
1$
0%
0&
0'
1(
1)
0*
0,
0.
0/
01
13
14
#50000000
1"
0$
1%
1'
0)
1*
1+
1-
1/
10
12
04
15
#60000000
1!
0"
1&
0'
1.
0/
#70000000
1"
1$
1'
1)
0+
1,
0-
1/
00
11
02
14
05
